%YAML 1.1
%TAG !u! tag:unity3d.com,2011:
--- !u!114 &11400000
MonoBehaviour:
  m_ObjectHideFlags: 0
  m_CorrespondingSourceObject: {fileID: 0}
  m_PrefabInstance: {fileID: 0}
  m_PrefabAsset: {fileID: 0}
  m_GameObject: {fileID: 0}
  m_Enabled: 1
  m_EditorHideFlags: 0
  m_Script: {fileID: 11500000, guid: 98ccdaa39c0456141ae47ae14ffdc55f, type: 3}
  m_Name: OnEnding
  m_EditorClassIdentifier: 
  description: "Call this event when the race finalizes (reaching the finish line)\n
    - It could be used for the timer or stopping moving areas"
