%YAML 1.1
%TAG !u! tag:unity3d.com,2011:
--- !u!1045 &1
EditorBuildSettings:
  m_ObjectHideFlags: 0
  serializedVersion: 2
  m_Scenes:
  - enabled: 0
    path: 
    guid: 00000000000000000000000000000000
  - enabled: 1
    path: Assets/Scenes/Menu.unity
    guid: e084c345647fb0647bf36ff0f5673d56
  - enabled: 1
    path: Assets/Scenes/Nivel1.unity
    guid: 7b53bf6ffd140644ebb5deeb5fa957e4
  - enabled: 1
    path: Assets/Scenes/Nivel2.unity
    guid: 5c29498e78abd0e4cbeb6443a08e0ce1
  m_configObjects: {}
